{
  "project_info": {
    "project_number": "31513219574",
    "project_id": "chamsockhachhang-f42e9",
    "storage_bucket": "chamsockhachhang-f42e9.appspot.com"
  },
  "client": [
    {
      "client_info": {
        "mobilesdk_app_id": "1:31513219574:android:6dedf3824017b2d64937d7",
        "android_client_info": {
          "package_name": "com.chamsockhachhang"
        }
      },
      "oauth_client": [
        {
          "client_id": "31513219574-hlaph85i49739i387d07mse04lk18oqt.apps.googleusercontent.com",
          "client_type": 1,
          "android_info": {
            "package_name": "com.chamsockhachhang",
            "certificate_hash": "5e8f16062ea3cd2c4a0d547876baa6f38cabf625"
          }
        },
        {
          "client_id": "31513219574-i88t5i5jejjturte95h72cid8f8k6vkc.apps.googleusercontent.com",
          "client_type": 3
        }
      ],
      "api_key": [
        {
          "current_key": "AIzaSyBu7rJeRJmQNPh6tV0dBNTIEp1mw7sek70"
        }
      ],
      "services": {
        "appinvite_service": {
          "other_platform_oauth_client": [
            {
              "client_id": "31513219574-i88t5i5jejjturte95h72cid8f8k6vkc.apps.googleusercontent.com",
              "client_type": 3
            }
          ]
        }
      }
    }
  ],
  "configuration_version": "1"
}